      LABEL-
INSTRUCTION-CONSTANT
   OPERAND1-IO_Port
   OPERAND2-00
    COMMENT-
      LABEL-
INSTRUCTION-CONSTANT
   OPERAND1-LED0
   OPERAND2-01
    COMMENT-
      LABEL-
INSTRUCTION-CONSTANT
   OPERAND1-LED1
   OPERAND2-02
    COMMENT-
      LABEL-
INSTRUCTION-CONSTANT
   OPERAND1-BNT0
   OPERAND2-04
    COMMENT-
      LABEL-
INSTRUCTION-CONSTANT
   OPERAND1-COM_Port
   OPERAND2-01
    COMMENT-
      LABEL-
INSTRUCTION-CONSTANT
   OPERAND1-TXD
   OPERAND2-01
    COMMENT-
      LABEL-
INSTRUCTION-CONSTANT
   OPERAND1-RXD
   OPERAND2-01
    COMMENT-
      LABEL-
INSTRUCTION-CONSTANT
   OPERAND1-RAM_ADDRESS_1
   OPERAND2-02
    COMMENT-; A0 - A7
      LABEL-
INSTRUCTION-
   OPERAND1-
   OPERAND2-
    COMMENT-;CONSTANT RAM_ADDRESS_2,  03 ; A8 - A10
      LABEL-
INSTRUCTION-CONSTANT
   OPERAND1-RAM
   OPERAND2-04
    COMMENT-; RAM Block
      LABEL-
INSTRUCTION-
   OPERAND1-
   OPERAND2-
    COMMENT-; Register Mapping
      LABEL-
INSTRUCTION-
   OPERAND1-
   OPERAND2-
    COMMENT-; alle acht Register s0 bis s7 stehen der ISR zur Verfuegung
      LABEL-
INSTRUCTION-NAMEREG
   OPERAND1-s0
   OPERAND2-IOR
    COMMENT-
      LABEL-
INSTRUCTION-NAMEREG
   OPERAND1-s1
   OPERAND2-TMP
    COMMENT-
      LABEL-
INSTRUCTION-NAMEREG
   OPERAND1-s2
   OPERAND2-BYTE_READY
    COMMENT-; Set if one byte is ready to be sent
      LABEL-
INSTRUCTION-NAMEREG
   OPERAND1-s3
   OPERAND2-BYTE_READ
    COMMENT-
      LABEL-
INSTRUCTION-NAMEREG
   OPERAND1-s4
   OPERAND2-CNT_CYCLES
    COMMENT-
      LABEL-
INSTRUCTION-NAMEREG
   OPERAND1-s5
   OPERAND2-CNT_BITS
    COMMENT-
      LABEL-
INSTRUCTION-NAMEREG
   OPERAND1-s6
   OPERAND2-BYTE
    COMMENT-
      LABEL-
INSTRUCTION-NAMEREG
   OPERAND1-s7
   OPERAND2-STATE_BIT
    COMMENT-
      LABEL-
INSTRUCTION-NAMEREG
   OPERAND1-s8
   OPERAND2-BIT_SEND
    COMMENT-;Number of bit send
      LABEL-
INSTRUCTION-NAMEREG
   OPERAND1-s9
   OPERAND2-BIT_SEND_CNT
    COMMENT-;
      LABEL-
INSTRUCTION-NAMEREG
   OPERAND1-sa
   OPERAND2-BYTE_TO_SEND
    COMMENT-
      LABEL-
INSTRUCTION-NAMEREG
   OPERAND1-sb
   OPERAND2-CNT_POSITIVE
    COMMENT-
      LABEL-
INSTRUCTION-NAMEREG
   OPERAND1-sc
   OPERAND2-CNTH
    COMMENT-
      LABEL-
INSTRUCTION-NAMEREG
   OPERAND1-sd
   OPERAND2-CNTL
    COMMENT-
      LABEL-
INSTRUCTION-NAMEREG
   OPERAND1-se
   OPERAND2-ONE
    COMMENT-
      LABEL-
INSTRUCTION-NAMEREG
   OPERAND1-sf
   OPERAND2-ZERO
    COMMENT-
      LABEL-
INSTRUCTION-
   OPERAND1-
   OPERAND2-
    COMMENT-; alle acht Register s8 bis sF stehen der Main-Funktion zur Verfuegung
      LABEL-
INSTRUCTION-
   OPERAND1-
   OPERAND2-
    COMMENT-; --------------------------------------------------------------------------------------------
      LABEL-
INSTRUCTION-ADDRESS
   OPERAND1-000
   OPERAND2-
    COMMENT-
      LABEL-
INSTRUCTION-
   OPERAND1-
   OPERAND2-
    COMMENT-; Hauptfunktion
      LABEL-start
INSTRUCTION-AND
   OPERAND1-CNTH
   OPERAND2-00
    COMMENT-; Initialisierung der Zaehlers ...
      LABEL-
INSTRUCTION-AND
   OPERAND1-CNTL
   OPERAND2-00
    COMMENT-; in der ISR
      LABEL-
INSTRUCTION-LOAD
   OPERAND1-STATE_BIT
   OPERAND2-00
    COMMENT-; START_BIT not found yet
      LABEL-
INSTRUCTION-LOAD
   OPERAND1-CNT_CYCLES
   OPERAND2-08
    COMMENT-;Cycles to wait from first low
      LABEL-
INSTRUCTION-LOAD
   OPERAND1-BYTE_READY
   OPERAND2-00
    COMMENT-;nothing to send
      LABEL-
INSTRUCTION-LOAD
   OPERAND1-ONE
   OPERAND2-01
    COMMENT-
      LABEL-
INSTRUCTION-LOAD
   OPERAND1-ZERO
   OPERAND2-00
    COMMENT-
      LABEL-
INSTRUCTION-LOAD
   OPERAND1-BYTE_READ
   OPERAND2-10
    COMMENT-; After 16 bytes send ram
      LABEL-
INSTRUCTION-LOAD
   OPERAND1-CNT_POSITIVE
   OPERAND2-00
    COMMENT-; BYTES saved in ram
      LABEL-
INSTRUCTION-OUTPUT
   OPERAND1-ZERO
   OPERAND2-RAM_ADDRESS_1
    COMMENT-
      LABEL-
INSTRUCTION-
   OPERAND1-
   OPERAND2-
    COMMENT-;OUTPUT ZERO, RAM_ADDRESS_2
      LABEL-
INSTRUCTION-ENABLE
   OPERAND1-INTERRUPT
   OPERAND2-
    COMMENT-
      LABEL-loop
INSTRUCTION-
   OPERAND1-
   OPERAND2-
    COMMENT-; do nothing
      LABEL-
INSTRUCTION-JUMP
   OPERAND1-loop
   OPERAND2-
    COMMENT-
      LABEL-
INSTRUCTION-
   OPERAND1-
   OPERAND2-
    COMMENT-;------------------------------------------------------------------
      LABEL-
INSTRUCTION-
   OPERAND1-
   OPERAND2-
    COMMENT-; RECEIVING BITS
      LABEL-WAIT_LOW
INSTRUCTION-
   OPERAND1-
   OPERAND2-
    COMMENT-
      LABEL-
INSTRUCTION-INPUT
   OPERAND1-IOR
   OPERAND2-COM_Port
    COMMENT-
      LABEL-
INSTRUCTION-COMPARE
   OPERAND1-IOR
   OPERAND2-00
    COMMENT-
      LABEL-
INSTRUCTION-JUMP
   OPERAND1-NZ
   OPERAND2-FINISHED
    COMMENT-;no start bit
      LABEL-
INSTRUCTION-LOAD
   OPERAND1-STATE_BIT
   OPERAND2-01
    COMMENT-; start bit found
      LABEL-
INSTRUCTION-LOAD
   OPERAND1-CNT_CYCLES
   OPERAND2-08
    COMMENT-; wait 8 cycles
      LABEL-
INSTRUCTION-RETURNI
   OPERAND1-ENABLE
   OPERAND2-
    COMMENT-
      LABEL-INVALID_STARTBIT
INSTRUCTION-
   OPERAND1-
   OPERAND2-
    COMMENT-
      LABEL-
INSTRUCTION-LOAD
   OPERAND1-STATE_BIT
   OPERAND2-00
    COMMENT-;search next startbit
      LABEL-
INSTRUCTION-RETURNI
   OPERAND1-ENABLE
   OPERAND2-
    COMMENT-
      LABEL-WAIT_FOR_STARTBIT
INSTRUCTION-
   OPERAND1-
   OPERAND2-
    COMMENT-
      LABEL-
INSTRUCTION-SUB
   OPERAND1-CNT_CYCLES
   OPERAND2-01
    COMMENT-;decrease counter
      LABEL-
INSTRUCTION-JUMP
   OPERAND1-NZ
   OPERAND2-FINISHED
    COMMENT-;Wait longer waited 8 cycles?
      LABEL-
INSTRUCTION-INPUT
   OPERAND1-IOR
   OPERAND2-COM_Port
    COMMENT-
      LABEL-
INSTRUCTION-COMPARE
   OPERAND1-IOR
   OPERAND2-00
    COMMENT-;bit = 0?
      LABEL-
INSTRUCTION-JUMP
   OPERAND1-NZ
   OPERAND2-INVALID_STARTBIT
    COMMENT-;No valid Startbit
      LABEL-
INSTRUCTION-LOAD
   OPERAND1-CNT_CYCLES
   OPERAND2-10
    COMMENT-;loop for 16 cycles
      LABEL-
INSTRUCTION-LOAD
   OPERAND1-CNT_BITS
   OPERAND2-08
    COMMENT-;1 byte = 8 bit
      LABEL-
INSTRUCTION-LOAD
   OPERAND1-STATE_BIT
   OPERAND2-02
    COMMENT-;Startbit was found
      LABEL-
INSTRUCTION-RETURNI
   OPERAND1-ENABLE
   OPERAND2-
    COMMENT-
      LABEL-WAIT_FOR_BIT
INSTRUCTION-
   OPERAND1-
   OPERAND2-
    COMMENT-
      LABEL-
INSTRUCTION-SUB
   OPERAND1-CNT_CYCLES
   OPERAND2-01
    COMMENT-;decrease counter
      LABEL-
INSTRUCTION-JUMP
   OPERAND1-Z
   OPERAND2-SAVE_BIT
    COMMENT-
      LABEL-
INSTRUCTION-RETURNI
   OPERAND1-ENABLE
   OPERAND2-
    COMMENT-
      LABEL-SAVE_BIT
INSTRUCTION-
   OPERAND1-
   OPERAND2-
    COMMENT-
      LABEL-
INSTRUCTION-LOAD
   OPERAND1-CNT_CYCLES
   OPERAND2-10
    COMMENT-; next bit in 16 cycles
      LABEL-
INSTRUCTION-INPUT
   OPERAND1-IOR
   OPERAND2-COM_Port
    COMMENT-;read input
      LABEL-
INSTRUCTION-COMPARE
   OPERAND1-IOR
   OPERAND2-00
    COMMENT-;save input
      LABEL-
INSTRUCTION-JUMP
   OPERAND1-Z
   OPERAND2-SAVE_LOW
    COMMENT-
      LABEL-
INSTRUCTION-JUMP
   OPERAND1-NZ
   OPERAND2-SAVE_HIGH
    COMMENT-
      LABEL-BIT_SAVED
INSTRUCTION-SUB
   OPERAND1-CNT_BITS
   OPERAND2-01
    COMMENT-;1 bit read
      LABEL-
INSTRUCTION-JUMP
   OPERAND1-NZ
   OPERAND2-FINISHED
    COMMENT-;wait next bit
      LABEL-BYTE_SAVED
INSTRUCTION-
   OPERAND1-
   OPERAND2-
    COMMENT-
      LABEL-
INSTRUCTION-CALL
   OPERAND1-TEST_BYTE
   OPERAND2-
    COMMENT-
      LABEL-
INSTRUCTION-LOAD
   OPERAND1-STATE_BIT
   OPERAND2-03
    COMMENT-;Wait for stop Bit
      LABEL-
INSTRUCTION-SUB
   OPERAND1-BYTE_READ
   OPERAND2-01
    COMMENT-; saved 1 byte
      LABEL-
INSTRUCTION-JUMP
   OPERAND1-NZ
   OPERAND2-FINISHED
    COMMENT-;get next bit
      LABEL-
INSTRUCTION-LOAD
   OPERAND1-BYTE_READ
   OPERAND2-10
    COMMENT-; reset counter
      LABEL-
INSTRUCTION-OUTPUT
   OPERAND1-ZERO
   OPERAND2-RAM_ADDRESS_1
    COMMENT-; Reset Address to start
      LABEL-
INSTRUCTION-JUMP
   OPERAND1-SEND_STARTBIT
   OPERAND2-
    COMMENT-
      LABEL-STOP_BIT
INSTRUCTION-
   OPERAND1-
   OPERAND2-
    COMMENT-
      LABEL-
INSTRUCTION-SUB
   OPERAND1-CNT_CYCLES
   OPERAND2-01
    COMMENT-
      LABEL-
INSTRUCTION-JUMP
   OPERAND1-NZ
   OPERAND2-FINISHED
    COMMENT-
      LABEL-
INSTRUCTION-LOAD
   OPERAND1-CNT_CYCLES
   OPERAND2-10
    COMMENT-
      LABEL-
INSTRUCTION-LOAD
   OPERAND1-STATE_BIT
   OPERAND2-00
    COMMENT-
      LABEL-
INSTRUCTION-RETURNI
   OPERAND1-ENABLE
   OPERAND2-
    COMMENT-
      LABEL-SAVE_HIGH
INSTRUCTION-
   OPERAND1-
   OPERAND2-
    COMMENT-
      LABEL-
INSTRUCTION-SR1
   OPERAND1-BYTE
   OPERAND2-
    COMMENT-
      LABEL-
INSTRUCTION-JUMP
   OPERAND1-BIT_SAVED
   OPERAND2-
    COMMENT-
      LABEL-SAVE_LOW
INSTRUCTION-
   OPERAND1-
   OPERAND2-
    COMMENT-
      LABEL-
INSTRUCTION-SR0
   OPERAND1-BYTE
   OPERAND2-
    COMMENT-
      LABEL-
INSTRUCTION-JUMP
   OPERAND1-BIT_SAVED
   OPERAND2-
    COMMENT-
      LABEL-
INSTRUCTION-
   OPERAND1-
   OPERAND2-
    COMMENT-;---------------------------------------------------------------
      LABEL-
INSTRUCTION-
   OPERAND1-
   OPERAND2-
    COMMENT-;SENDING
      LABEL-SEND_STARTBIT
INSTRUCTION-LOAD
   OPERAND1-STATE_BIT
   OPERAND2-05
    COMMENT-
      LABEL-
INSTRUCTION-CALL
   OPERAND1-SEND_LOW
   OPERAND2-
    COMMENT-; Output start bit
      LABEL-
INSTRUCTION-LOAD
   OPERAND1-CNT_CYCLES
   OPERAND2-10
    COMMENT-; wait 16 cycles
      LABEL-
INSTRUCTION-LOAD
   OPERAND1-BIT_SEND
   OPERAND2-09
    COMMENT-;no bits send
      LABEL-
INSTRUCTION-INPUT
   OPERAND1-BYTE_TO_SEND
   OPERAND2-RAM
    COMMENT-
      LABEL-
INSTRUCTION-RETURNI
   OPERAND1-ENABLE
   OPERAND2-
    COMMENT-
      LABEL-SEND_BIT
INSTRUCTION-
   OPERAND1-
   OPERAND2-
    COMMENT-
      LABEL-
INSTRUCTION-SUB
   OPERAND1-CNT_CYCLES
   OPERAND2-01
    COMMENT-;wait 16 cycles
      LABEL-
INSTRUCTION-JUMP
   OPERAND1-NZ
   OPERAND2-FINISHED
    COMMENT-
      LABEL-
INSTRUCTION-LOAD
   OPERAND1-CNT_CYCLES
   OPERAND2-10
    COMMENT-; set for next bit
      LABEL-
INSTRUCTION-SR1
   OPERAND1-BYTE_TO_SEND
   OPERAND2-
    COMMENT-; shift
      LABEL-
INSTRUCTION-CALL
   OPERAND1-C
   OPERAND2-SEND_HIGH
    COMMENT-; send carry
      LABEL-
INSTRUCTION-CALL
   OPERAND1-NC
   OPERAND2-SEND_LOW
    COMMENT-
      LABEL-
INSTRUCTION-SUB
   OPERAND1-BIT_SEND
   OPERAND2-01
    COMMENT-; 1 bit was send
      LABEL-
INSTRUCTION-JUMP
   OPERAND1-NZ
   OPERAND2-FINISHED
    COMMENT-; continue if there is more to send
      LABEL-
INSTRUCTION-LOAD
   OPERAND1-CNT_CYCLES
   OPERAND2-10
    COMMENT-; wait 16 cycles
      LABEL-
INSTRUCTION-LOAD
   OPERAND1-STATE_BIT
   OPERAND2-06
    COMMENT-; send stopp bit
      LABEL-
INSTRUCTION-RETURNI
   OPERAND1-ENABLE
   OPERAND2-
    COMMENT-
      LABEL-SEND_STOPBIT
INSTRUCTION-
   OPERAND1-
   OPERAND2-
    COMMENT-
      LABEL-
INSTRUCTION-SUB
   OPERAND1-CNT_CYCLES
   OPERAND2-01
    COMMENT-; wait 16 cycles
      LABEL-
INSTRUCTION-JUMP
   OPERAND1-NZ
   OPERAND2-FINISHED
    COMMENT-
      LABEL-
INSTRUCTION-LOAD
   OPERAND1-CNT_CYCLES
   OPERAND2-10
    COMMENT-
      LABEL-
INSTRUCTION-CALL
   OPERAND1-SEND_HIGH
   OPERAND2-
    COMMENT-; stop bit = high
      LABEL-
INSTRUCTION-INPUT
   OPERAND1-TMP
   OPERAND2-RAM_ADDRESS_1
    COMMENT-
      LABEL-
INSTRUCTION-SUB
   OPERAND1-CNT_POSITIVE
   OPERAND2-01
    COMMENT-
      LABEL-
INSTRUCTION-JUMP
   OPERAND1-Z
   OPERAND2-ENTER_READING_STATE
    COMMENT-
      LABEL-
INSTRUCTION-ADD
   OPERAND1-TMP
   OPERAND2-01
    COMMENT-
      LABEL-SEND_STOPBIT2
INSTRUCTION-OUTPUT
   OPERAND1-TMP
   OPERAND2-RAM_ADDRESS_1
    COMMENT-
      LABEL-
INSTRUCTION-LOAD
   OPERAND1-STATE_BIT
   OPERAND2-04
    COMMENT-; send next start bit
      LABEL-
INSTRUCTION-RETURNI
   OPERAND1-ENABLE
   OPERAND2-
    COMMENT-
      LABEL-UNDERFLOW
INSTRUCTION-
   OPERAND1-
   OPERAND2-
    COMMENT-;INPUT IOR, RAM_ADDRESS_2 ; Underflow routine unnecessary
      LABEL-
INSTRUCTION-
   OPERAND1-
   OPERAND2-
    COMMENT-;SUB IOR, 01
      LABEL-
INSTRUCTION-
   OPERAND1-
   OPERAND2-
    COMMENT-;JUMP C, ENTER_READING_STATE
      LABEL-
INSTRUCTION-
   OPERAND1-
   OPERAND2-
    COMMENT-;LOAD TMP, ff
      LABEL-
INSTRUCTION-
   OPERAND1-
   OPERAND2-
    COMMENT-;OUTPUT IOR, RAM_ADDRESS_2
      LABEL-
INSTRUCTION-
   OPERAND1-
   OPERAND2-
    COMMENT-;JUMP SEND_STOPBIT2
      LABEL-ENTER_READING_STATE
INSTRUCTION-
   OPERAND1-
   OPERAND2-
    COMMENT-
      LABEL-
INSTRUCTION-OUTPUT
   OPERAND1-ZERO
   OPERAND2-RAM_ADDRESS_1
    COMMENT-
      LABEL-
INSTRUCTION-
   OPERAND1-
   OPERAND2-
    COMMENT-;OUTPUT ZERO, RAM_ADDRESS_2
      LABEL-
INSTRUCTION-LOAD
   OPERAND1-STATE_BIT
   OPERAND2-00
    COMMENT-
      LABEL-
INSTRUCTION-RETURNI
   OPERAND1-ENABLE
   OPERAND2-
    COMMENT-
      LABEL-SEND_HIGH
INSTRUCTION-
   OPERAND1-
   OPERAND2-
    COMMENT-
      LABEL-
INSTRUCTION-OUTPUT
   OPERAND1-ONE
   OPERAND2-COM_Port
    COMMENT-
      LABEL-
INSTRUCTION-RETURN
   OPERAND1-
   OPERAND2-
    COMMENT-
      LABEL-SEND_LOW
INSTRUCTION-
   OPERAND1-
   OPERAND2-
    COMMENT-
      LABEL-
INSTRUCTION-OUTPUT
   OPERAND1-ZERO
   OPERAND2-COM_Port
    COMMENT-
      LABEL-
INSTRUCTION-RETURN
   OPERAND1-
   OPERAND2-
    COMMENT-
      LABEL-
INSTRUCTION-
   OPERAND1-
   OPERAND2-
    COMMENT-;-----------------------------------------------------------
      LABEL-
INSTRUCTION-
   OPERAND1-
   OPERAND2-
    COMMENT-;Testing the Value
      LABEL-
INSTRUCTION-
   OPERAND1-
   OPERAND2-
    COMMENT-;Has to be in '1-9' or 'A-Z' or 'a-z'
      LABEL-TEST_BYTE
INSTRUCTION-
   OPERAND1-
   OPERAND2-
    COMMENT-
      LABEL-
INSTRUCTION-
   OPERAND1-
   OPERAND2-
    COMMENT-;... FAIL |29 - 40| FAIL |41 - 5a| FAIL |60 - 7a| FAIL ...
      LABEL-
INSTRUCTION-COMPARE
   OPERAND1-BYTE
   OPERAND2-30
    COMMENT-; has to be greater than 29 (30 is '1')
      LABEL-
INSTRUCTION-RETURN
   OPERAND1-C
   OPERAND2-
    COMMENT-; FAILED
      LABEL-
INSTRUCTION-COMPARE
   OPERAND1-BYTE
   OPERAND2-3a
    COMMENT-; if lesser is in '1-9'
      LABEL-
INSTRUCTION-JUMP
   OPERAND1-C
   OPERAND2-TEST_POSITIVE
    COMMENT-; SUCCESS
      LABEL-
INSTRUCTION-COMPARE
   OPERAND1-BYTE
   OPERAND2-7b
    COMMENT-; has to be lesser than 7b (7a is 'Z')
      LABEL-
INSTRUCTION-RETURN
   OPERAND1-NC
   OPERAND2-
    COMMENT-; FAILED
      LABEL-
INSTRUCTION-COMPARE
   OPERAND1-BYTE
   OPERAND2-61
    COMMENT-; if greater is in 'a-z'
      LABEL-
INSTRUCTION-JUMP
   OPERAND1-NC
   OPERAND2-TEST_POSITIVE
    COMMENT-; SUCCESS
      LABEL-
INSTRUCTION-COMPARE
   OPERAND1-BYTE
   OPERAND2-41
    COMMENT-; has to be greater 40 AND lesser 5a
      LABEL-
INSTRUCTION-RETURN
   OPERAND1-C
   OPERAND2-
    COMMENT-; FAIL
      LABEL-
INSTRUCTION-COMPARE
   OPERAND1-BYTE
   OPERAND2-5b
    COMMENT-;
      LABEL-
INSTRUCTION-RETURN
   OPERAND1-NC
   OPERAND2-
    COMMENT-; FAIL
      LABEL-TEST_POSITIVE
INSTRUCTION-
   OPERAND1-
   OPERAND2-
    COMMENT-
      LABEL-
INSTRUCTION-
   OPERAND1-
   OPERAND2-
    COMMENT-;LOAD BYTE_READY, 01 ;byte ready
      LABEL-
INSTRUCTION-INPUT
   OPERAND1-IOR
   OPERAND2-RAM_ADDRESS_1
    COMMENT-; Get Address to write
      LABEL-
INSTRUCTION-
   OPERAND1-
   OPERAND2-
    COMMENT-;CALL C, OVERFLOW_CARRY ; unnecessary overflow routine
      LABEL-
INSTRUCTION-ADD
   OPERAND1-CNT_POSITIVE
   OPERAND2-01
    COMMENT-; 1 byte was saved
      LABEL-
INSTRUCTION-OUTPUT
   OPERAND1-BYTE
   OPERAND2-RAM
    COMMENT-; save byte
      LABEL-
INSTRUCTION-ADD
   OPERAND1-IOR
   OPERAND2-01
    COMMENT-; increase next adress
      LABEL-
INSTRUCTION-OUTPUT
   OPERAND1-IOR
   OPERAND2-RAM_ADDRESS_1
    COMMENT-
      LABEL-
INSTRUCTION-RETURN
   OPERAND1-
   OPERAND2-
    COMMENT-;SUCCESS
      LABEL-OVERFLOW_CARRY
INSTRUCTION-
   OPERAND1-
   OPERAND2-
    COMMENT-
      LABEL-
INSTRUCTION-
   OPERAND1-
   OPERAND2-
    COMMENT-;INPUT IOR, RAM_ADDRESS_2
      LABEL-
INSTRUCTION-
   OPERAND1-
   OPERAND2-
    COMMENT-;ADD IOR, 01
      LABEL-
INSTRUCTION-
   OPERAND1-
   OPERAND2-
    COMMENT-;OUTPUT IOR, RAM_ADDRESS_2
      LABEL-
INSTRUCTION-
   OPERAND1-
   OPERAND2-
    COMMENT-;RETURN
      LABEL-
INSTRUCTION-
   OPERAND1-
   OPERAND2-
    COMMENT-;--------------------------------------
      LABEL-
INSTRUCTION-
   OPERAND1-
   OPERAND2-
    COMMENT-; DEBUGGING
      LABEL-DEBUG_OUTPUT
INSTRUCTION-
   OPERAND1-
   OPERAND2-
    COMMENT-
      LABEL-
INSTRUCTION-LOAD
   OPERAND1-TMP
   OPERAND2-00
    COMMENT-
      LABEL-
INSTRUCTION-OUTPUT
   OPERAND1-TMP
   OPERAND2-65
    COMMENT-
      LABEL-
INSTRUCTION-LOAD
   OPERAND1-TMP
   OPERAND2-01
    COMMENT-
      LABEL-
INSTRUCTION-OUTPUT
   OPERAND1-TMP
   OPERAND2-01
    COMMENT-
      LABEL-
INSTRUCTION-RETURN
   OPERAND1-
   OPERAND2-
    COMMENT-
      LABEL-DEBUG_STATEBIT
INSTRUCTION-
   OPERAND1-
   OPERAND2-
    COMMENT-
      LABEL-
INSTRUCTION-COMPARE
   OPERAND1-STATE_BIT
   OPERAND2-00
    COMMENT-
      LABEL-
INSTRUCTION-CALL
   OPERAND1-Z
   OPERAND2-DEBUG_OUTPUT
    COMMENT-
      LABEL-
INSTRUCTION-COMPARE
   OPERAND1-STATE_BIT
   OPERAND2-01
    COMMENT-;START_BIT set?
      LABEL-
INSTRUCTION-CALL
   OPERAND1-Z
   OPERAND2-DEBUG_OUTPUT
    COMMENT-
      LABEL-
INSTRUCTION-CALL
   OPERAND1-Z
   OPERAND2-DEBUG_OUTPUT
    COMMENT-
      LABEL-
INSTRUCTION-COMPARE
   OPERAND1-STATE_BIT
   OPERAND2-02
    COMMENT-;
      LABEL-
INSTRUCTION-CALL
   OPERAND1-Z
   OPERAND2-DEBUG_OUTPUT
    COMMENT-
      LABEL-
INSTRUCTION-CALL
   OPERAND1-Z
   OPERAND2-DEBUG_OUTPUT
    COMMENT-
      LABEL-
INSTRUCTION-CALL
   OPERAND1-Z
   OPERAND2-DEBUG_OUTPUT
    COMMENT-
      LABEL-
INSTRUCTION-
   OPERAND1-
   OPERAND2-
    COMMENT-; --------------------------------------------------------------------------------------------
      LABEL-
INSTRUCTION-
   OPERAND1-
   OPERAND2-
    COMMENT-; --------------------------------------------------------------------------------------------
      LABEL-
INSTRUCTION-
   OPERAND1-
   OPERAND2-
    COMMENT-; Subroutine, die den Zustand des Buttons BTN0 auf die Leuchtdiode LED0 durchschaltet
      LABEL-BNT0LED0
INSTRUCTION-
   OPERAND1-
   OPERAND2-
    COMMENT-
      LABEL-
INSTRUCTION-INPUT
   OPERAND1-IOR
   OPERAND2-IO_Port
    COMMENT-; IO-Port einlesen
      LABEL-
INSTRUCTION-INPUT
   OPERAND1-TMP
   OPERAND2-IO_Port
    COMMENT-; IO-Port einlesen
      LABEL-
INSTRUCTION-AND
   OPERAND1-TMP
   OPERAND2-BNT0
    COMMENT-; Zustand von BNT0 ermitteln
      LABEL-
INSTRUCTION-SR0
   OPERAND1-TMP
   OPERAND2-
    COMMENT-; auf die Position ...
      LABEL-
INSTRUCTION-SR0
   OPERAND1-TMP
   OPERAND2-
    COMMENT-; ... von LED0 verschieben
      LABEL-
INSTRUCTION-AND
   OPERAND1-IOR
   OPERAND2-LED1
    COMMENT-; Zustand von LED1 ermitteln
      LABEL-
INSTRUCTION-OR
   OPERAND1-IOR
   OPERAND2-TMP
    COMMENT-; LED1 mit BNT0 konkatinieren
      LABEL-
INSTRUCTION-OUTPUT
   OPERAND1-IOR
   OPERAND2-IO_Port
    COMMENT-; den neuen Wert ueber IO-Port ausgeben
      LABEL-
INSTRUCTION-RETURN
   OPERAND1-
   OPERAND2-
    COMMENT-
      LABEL-
INSTRUCTION-
   OPERAND1-
   OPERAND2-
    COMMENT-; --------------------------------------------------------------------------------------------
      LABEL-
INSTRUCTION-
   OPERAND1-
   OPERAND2-
    COMMENT-; Subroutine, die die Leuchtdione LED1 mit ca. 1 Hz blinken laesst
      LABEL-BLINK
INSTRUCTION-ADD
   OPERAND1-CNTL
   OPERAND2-01
    COMMENT-; den 16-Bit-Zaehler ...
      LABEL-
INSTRUCTION-ADDCY
   OPERAND1-CNTH
   OPERAND2-00
    COMMENT-; .. inkrementieren
      LABEL-
INSTRUCTION-JUMP
   OPERAND1-NC
   OPERAND2-BLINK0
    COMMENT-; kein Ueberlauf -> exit, sonst
      LABEL-
INSTRUCTION-INPUT
   OPERAND1-IOR
   OPERAND2-IO_Port
    COMMENT-; IO-Port einlesen
      LABEL-
INSTRUCTION-XOR
   OPERAND1-IOR
   OPERAND2-LED1
    COMMENT-; LED1 toggeln
      LABEL-
INSTRUCTION-OUTPUT
   OPERAND1-IOR
   OPERAND2-IO_Port
    COMMENT-; den neuen Wert ueber IO-Port ausgeben
      LABEL-BLINK0
INSTRUCTION-RETURN
   OPERAND1-
   OPERAND2-
    COMMENT-
      LABEL-
INSTRUCTION-
   OPERAND1-
   OPERAND2-
    COMMENT-; -------------------------------------------------------------------------------------------
      LABEL-
INSTRUCTION-ADDRESS
   OPERAND1-300
   OPERAND2-
    COMMENT-
      LABEL-
INSTRUCTION-
   OPERAND1-
   OPERAND2-
    COMMENT-; Interrupt-Service-Routine
      LABEL-ISR
INSTRUCTION-
   OPERAND1-
   OPERAND2-
    COMMENT-
      LABEL-
INSTRUCTION-CALL
   OPERAND1-BNT0LED0
   OPERAND2-
    COMMENT-
      LABEL-
INSTRUCTION-CALL
   OPERAND1-BLINK
   OPERAND2-
    COMMENT-
      LABEL-
INSTRUCTION-COMPARE
   OPERAND1-STATE_BIT
   OPERAND2-02
    COMMENT-;
      LABEL-
INSTRUCTION-JUMP
   OPERAND1-Z
   OPERAND2-WAIT_FOR_BIT
    COMMENT-
      LABEL-
INSTRUCTION-COMPARE
   OPERAND1-STATE_BIT
   OPERAND2-05
    COMMENT-;sent byte
      LABEL-
INSTRUCTION-JUMP
   OPERAND1-Z
   OPERAND2-SEND_BIT
    COMMENT-
      LABEL-
INSTRUCTION-COMPARE
   OPERAND1-STATE_BIT
   OPERAND2-00
    COMMENT-
      LABEL-
INSTRUCTION-JUMP
   OPERAND1-Z
   OPERAND2-WAIT_LOW
    COMMENT-
      LABEL-
INSTRUCTION-COMPARE
   OPERAND1-STATE_BIT
   OPERAND2-01
    COMMENT-;START_BIT set?
      LABEL-
INSTRUCTION-JUMP
   OPERAND1-Z
   OPERAND2-WAIT_FOR_STARTBIT
    COMMENT-
      LABEL-
INSTRUCTION-COMPARE
   OPERAND1-STATE_BIT
   OPERAND2-03
    COMMENT-
      LABEL-
INSTRUCTION-JUMP
   OPERAND1-Z
   OPERAND2-STOP_BIT
    COMMENT-
      LABEL-
INSTRUCTION-COMPARE
   OPERAND1-STATE_BIT
   OPERAND2-04
    COMMENT-;sent start bit
      LABEL-
INSTRUCTION-JUMP
   OPERAND1-Z
   OPERAND2-SEND_STARTBIT
    COMMENT-
      LABEL-
INSTRUCTION-COMPARE
   OPERAND1-STATE_BIT
   OPERAND2-06
    COMMENT-;sent stop bit
      LABEL-
INSTRUCTION-JUMP
   OPERAND1-Z
   OPERAND2-SEND_STOPBIT
    COMMENT-
      LABEL-FINISHED
INSTRUCTION-RETURNI
   OPERAND1-ENABLE
   OPERAND2-
    COMMENT-
      LABEL-
INSTRUCTION-
   OPERAND1-
   OPERAND2-
    COMMENT-; --------------------------------------------------------------------------------------------
      LABEL-
INSTRUCTION-
   OPERAND1-
   OPERAND2-
    COMMENT-; Interrupt-Vektor
      LABEL-
INSTRUCTION-ADDRESS
   OPERAND1-3FF
   OPERAND2-
    COMMENT-
      LABEL-
INSTRUCTION-JUMP
   OPERAND1-ISR
   OPERAND2-
    COMMENT-
